{
    "info": {
        "_postman_id": "2e8f4439-fa37-4335-aca1-525773783168",
        "name": "Transactions",
        "schema": "https://schema.getpostman.com/json/collection/v2.1.0/collection.json",
        "description": ""
    },
    "item": [
        {
            "name": "Transactions",
            "request": {
                "method": "GET",
                "url": {
                    "raw": "localhost:3000/transactions?from=2024-01-17&to=2024-04-19",
                    "query": [
                        {
                            "key": "from",
                            "value": "2024-01-17"
                        },
                        {
                            "key": "to",
                            "value": "2024-04-19"
                        }
                    ],
                    "variable": [],
                    "path": [
                        "transactions"
                    ],
                    "host": [
                        "localhost"
                    ],
                    "port": "3000"
                },
                "auth": {
                    "type": "bearer",
                    "bearer": [
                        {
                            "key": "token",
                            "value": "eyJhbGciOiJIUzI1NiIsInR5cCI6IkpXVCJ9.eyJpZCI6IjY1Zjg0NTI2MTQ1NmQ5ZjY5ZGQ2NGEyZSIsInVzZXJuYW1lIjoicmFuZ2lyYSIsImlhdCI6MTcxMDc3NjA0MywiZXhwIjoxNzEwNzc2NjQzfQ.5RGSbBxUwhY8ZIUa7TMJI4BgprBjtJ3itlH8vx82MEo",
                            "type": "string"
                        }
                    ]
                }
            }
        },
        {
            "name": "Single Transaction",
            "request": {
                "method": "GET",
                "url": {
                    "raw": "localhost:3000/transactions/65f8488ca802e0b4c1f9c4aa",
                    "path": [
                        "transactions",
                        "65f8488ca802e0b4c1f9c4aa"
                    ],
                    "host": [
                        "localhost"
                    ],
                    "port": "3000"
                },
                "auth": {
                    "type": "bearer",
                    "bearer": [
                        {
                            "key": "token",
                            "value": "eyJhbGciOiJIUzI1NiIsInR5cCI6IkpXVCJ9.eyJpZCI6IjY1Zjg0NTI2MTQ1NmQ5ZjY5ZGQ2NGEyZSIsInVzZXJuYW1lIjoicmFuZ2lyYSIsImlhdCI6MTcxMDc3NDQ0MiwiZXhwIjoxNzEwNzc1MDQyfQ.myeN4ukIwL0kpFltzsDi3KMvi0qr4r4BcrbtWp3a-yQ",
                            "type": "string"
                        }
                    ]
                }
            }
        },
        {
            "name": "My Transactions",
            "request": {
                "method": "GET",
                "url": {
                    "raw": "localhost:3000/transactions/mine?from=2024-01-17&to=2024-04-19",
                    "query": [
                        {
                            "key": "from",
                            "value": "2024-01-17"
                        },
                        {
                            "key": "to",
                            "value": "2024-04-19"
                        }
                    ],
                    "variable": [],
                    "path": [
                        "transactions",
                        "mine"
                    ],
                    "host": [
                        "localhost"
                    ],
                    "port": "3000"
                },
                "auth": {
                    "type": "bearer",
                    "bearer": [
                        {
                            "key": "token",
                            "value": "eyJhbGciOiJIUzI1NiIsInR5cCI6IkpXVCJ9.eyJpZCI6IjY1Zjg0NTI2MTQ1NmQ5ZjY5ZGQ2NGEyZSIsInVzZXJuYW1lIjoicmFuZ2lyYSIsImlhdCI6MTcxMDc3NjA0MywiZXhwIjoxNzEwNzc2NjQzfQ.5RGSbBxUwhY8ZIUa7TMJI4BgprBjtJ3itlH8vx82MEo",
                            "type": "string"
                        }
                    ]
                }
            }
        },
        {
            "name": "New Transaction",
            "request": {
                "method": "POST",
                "url": {
                    "raw": "localhost:3000/transactions",
                    "path": [
                        "transactions"
                    ],
                    "host": [
                        "localhost"
                    ],
                    "port": "3000"
                },
                "body": {
                    "mode": "raw",
                    "options": {
                        "raw": {
                            "language": "json"
                        }
                    },
                    "raw": "{\n  \"product\": \"65f8442a2b1fa2c401c3e04a\",\n  \"amount\": 205000,\n  \"quantity\": 1\n}"
                },
                "auth": {
                    "type": "bearer",
                    "bearer": [
                        {
                            "key": "token",
                            "value": "eyJhbGciOiJIUzI1NiIsInR5cCI6IkpXVCJ9.eyJpZCI6IjY1ZjhiYzAwZjI1NDU1NGRkNjI5OWJkNyIsInVzZXJuYW1lIjoicmVpbnkiLCJpYXQiOjE3MTA4MjM3MjQsImV4cCI6MTcxMDgyNDMyNH0.P6eB_cjO4ncJJEVfsddoqny3ukNvv_aGxEt-2oiN7zY",
                            "type": "string"
                        }
                    ]
                }
            }
        }
    ]
}